{
    "data":[
       {
          "id":15,
          "title":"From API6",
          "description":"Lorem ipsum dolor sit amet, consectetur adipiscing elit. Suspendisse tincidunt nibh et suscipit tincidunt. Suspendisse cursus molestie purus, vel bibendum erat dignissim ac. Nam luctus leo aliquet, condimentum tellus ut, accumsan tellus. Aliquam at commodo felis. Aliquam aliquam nibh a fermentum convallis. Fusce commodo ante et erat maximus, a rutrum neque cursus. Sed leo orci, auctor eget nibh ut, finibus auctor lectus. Praesent facilisis sem eros, sed pharetra arcu ultrices in. In eget porttitor metus. Pellentesque vulputate quis nisi vitae malesuada.\n\nPellentesque habitant morbi tristique senectus et netus et malesuada fames ac turpis egestas. Donec vel semper lorem. Nam eleifend elit id risus vehicula, vel vehicula magna imperdiet."
       },
       {
          "id":14,
          "title":"From API5",
          "description":"Lorem ipsum dolor sit amet, consectetur adipiscing elit. Suspendisse tincidunt nibh et suscipit tincidunt. Suspendisse cursus molestie purus, vel bibendum erat dignissim ac. Nam luctus leo aliquet, condimentum tellus ut, accumsan tellus. Aliquam at commodo felis. Aliquam aliquam nibh a fermentum convallis. Fusce commodo ante et erat maximus, a rutrum neque cursus. Sed leo orci, auctor eget nibh ut, finibus auctor lectus. Praesent facilisis sem eros, sed pharetra arcu ultrices in. In eget porttitor metus. Pellentesque vulputate quis nisi vitae malesuada.\n\nPellentesque habitant morbi tristique senectus et netus et malesuada fames ac turpis egestas. Donec vel semper lorem. Nam eleifend elit id risus vehicula, vel vehicula magna imperdiet."
       },
       {
          "id":13,
          "title":"From API4",
          "description":"Lorem ipsum dolor sit amet, consectetur adipiscing elit. Suspendisse tincidunt nibh et suscipit tincidunt. Suspendisse cursus molestie purus, vel bibendum erat dignissim ac. Nam luctus leo aliquet, condimentum tellus ut, accumsan tellus. Aliquam at commodo felis. Aliquam aliquam nibh a fermentum convallis. Fusce commodo ante et erat maximus, a rutrum neque cursus. Sed leo orci, auctor eget nibh ut, finibus auctor lectus. Praesent facilisis sem eros, sed pharetra arcu ultrices in. In eget porttitor metus. Pellentesque vulputate quis nisi vitae malesuada.\n\nPellentesque habitant morbi tristique senectus et netus et malesuada fames ac turpis egestas. Donec vel semper lorem. Nam eleifend elit id risus vehicula, vel vehicula magna imperdiet."
       },
       {
          "id":12,
          "title":"From API3",
          "description":"Lorem ipsum dolor sit amet, consectetur adipiscing elit. Suspendisse tincidunt nibh et suscipit tincidunt. Suspendisse cursus molestie purus, vel bibendum erat dignissim ac. Nam luctus leo aliquet, condimentum tellus ut, accumsan tellus. Aliquam at commodo felis. Aliquam aliquam nibh a fermentum convallis. Fusce commodo ante et erat maximus, a rutrum neque cursus. Sed leo orci, auctor eget nibh ut, finibus auctor lectus. Praesent facilisis sem eros, sed pharetra arcu ultrices in. In eget porttitor metus. Pellentesque vulputate quis nisi vitae malesuada.\n\nPellentesque habitant morbi tristique senectus et netus et malesuada fames ac turpis egestas. Donec vel semper lorem. Nam eleifend elit id risus vehicula, vel vehicula magna imperdiet."
       },
       {
          "id":11,
          "title":"From API2",
          "description":"Lorem ipsum dolor sit amet, consectetur adipiscing elit. Suspendisse tincidunt nibh et suscipit tincidunt. Suspendisse cursus molestie purus, vel bibendum erat dignissim ac. Nam luctus leo aliquet, condimentum tellus ut, accumsan tellus. Aliquam at commodo felis. Aliquam aliquam nibh a fermentum convallis. Fusce commodo ante et erat maximus, a rutrum neque cursus. Sed leo orci, auctor eget nibh ut, finibus auctor lectus. Praesent facilisis sem eros, sed pharetra arcu ultrices in. In eget porttitor metus. Pellentesque vulputate quis nisi vitae malesuada.\n\nPellentesque habitant morbi tristique senectus et netus et malesuada fames ac turpis egestas. Donec vel semper lorem. Nam eleifend elit id risus vehicula, vel vehicula magna imperdiet."
       }
    ],
    "links":{
       "first":"http:\/\/practice.local\/api\/projects?page=1",
       "last":"http:\/\/practice.local\/api\/projects?page=3",
       "prev":null,
       "next":"http:\/\/practice.local\/api\/projects?page=2"
    },
    "meta":{
       "current_page":1,
       "from":1,
       "last_page":3,
       "path":"http:\/\/practice.local\/api\/projects",
       "per_page":5,
       "to":5,
       "total":13
    }
 }